<?xml version="1.0" encoding="UTF-8" standalone="no"?>
<!-- Created with Inkscape (http://www.inkscape.org/) -->

<svg
   xmlns:dc="http://purl.org/dc/elements/1.1/"
   xmlns:cc="http://creativecommons.org/ns#"
   xmlns:rdf="http://www.w3.org/1999/02/22-rdf-syntax-ns#"
   xmlns:svg="http://www.w3.org/2000/svg"
   xmlns="http://www.w3.org/2000/svg"
   xmlns:sodipodi="http://sodipodi.sourceforge.net/DTD/sodipodi-0.dtd"
   xmlns:inkscape="http://www.inkscape.org/namespaces/inkscape"
   width="744.09448819"
   height="1052.3622047"
   id="svg2"
   version="1.1"
   inkscape:version="0.48.4 r9939"
   sodipodi:docname="New document 1">
  <defs
     id="defs4" />
  <sodipodi:namedview
     id="base"
     pagecolor="#ffffff"
     bordercolor="#666666"
     borderopacity="1.0"
     inkscape:pageopacity="0.0"
     inkscape:pageshadow="2"
     inkscape:zoom="4.1608815"
     inkscape:cx="434.91161"
     inkscape:cy="110.35797"
     inkscape:document-units="px"
     inkscape:current-layer="layer1"
     showgrid="false"
     inkscape:snap-bbox="true"
     inkscape:snap-bbox-midpoints="true"
     inkscape:snap-bbox-edge-midpoints="true"
     inkscape:bbox-nodes="true"
     inkscape:window-width="1366"
     inkscape:window-height="705"
     inkscape:window-x="-8"
     inkscape:window-y="-8"
     inkscape:window-maximized="1" />
  <metadata
     id="metadata7">
    <rdf:RDF>
      <cc:Work
         rdf:about="">
        <dc:format>image/svg+xml</dc:format>
        <dc:type
           rdf:resource="http://purl.org/dc/dcmitype/StillImage" />
        <dc:title></dc:title>
      </cc:Work>
    </rdf:RDF>
  </metadata>
  <g
     inkscape:label="Layer 1"
     inkscape:groupmode="layer"
     id="layer1">
    <path
       sodipodi:type="arc"
       style="color:#000000;fill:none;stroke:#800080;stroke-width:5;stroke-linecap:round;stroke-linejoin:bevel;stroke-miterlimit:4;stroke-opacity:1;stroke-dasharray:none;stroke-dashoffset:0;marker:none;visibility:visible;display:inline;overflow:visible;enable-background:accumulate"
       id="path2985"
       sodipodi:cx="331.0462"
       sodipodi:cy="665.57513"
       sodipodi:rx="188.29527"
       sodipodi:ry="188.29527"
       d="m 519.34148,665.57513 a 188.29527,188.29527 0 1 1 -376.59055,0 188.29527,188.29527 0 1 1 376.59055,0 z"
       transform="matrix(1.3527177,0,0,1.3527177,-49.468983,-167.46325)"
       inkscape:export-xdpi="199"
       inkscape:export-ydpi="199" />
    <path
       sodipodi:type="star"
       style="color:#000000;fill:none;stroke:#800080;stroke-width:5;stroke-linecap:round;stroke-linejoin:bevel;stroke-miterlimit:4;stroke-opacity:1;stroke-dasharray:none;stroke-dashoffset:0;marker:none;visibility:visible;display:inline;overflow:visible;enable-background:accumulate"
       id="path2987"
       sodipodi:sides="3"
       sodipodi:cx="262.3898"
       sodipodi:cy="640.42377"
       sodipodi:r1="18.240046"
       sodipodi:r2="9.1200228"
       sodipodi:arg1="2.6179939"
       sodipodi:arg2="3.6651914"
       inkscape:flatsided="true"
       inkscape:rounded="0"
       inkscape:randomized="0"
       d="m 246.59346,649.54379 15.79634,-27.36007 15.79634,27.36007 z"
       inkscape:transform-center-y="220"
       transform="translate(135.95328,317.00826)"
       inkscape:export-filename="C:\Users\Andre\path2989.png"
       inkscape:export-xdpi="199"
       inkscape:export-ydpi="199" />
    <path
       sodipodi:type="star"
       style="color:#000000;fill:#800000;fill-opacity:1;fill-rule:nonzero;stroke:#800000;stroke-width:5;stroke-linecap:round;stroke-linejoin:bevel;stroke-miterlimit:4;stroke-opacity:1;stroke-dasharray:none;stroke-dashoffset:0;marker:none;visibility:visible;display:inline;overflow:visible;enable-background:accumulate"
       id="path2989"
       sodipodi:sides="4"
       sodipodi:cx="420.09558"
       sodipodi:cy="742.38873"
       sodipodi:r1="34.232159"
       sodipodi:r2="17.116079"
       sodipodi:arg1="-1.5707963"
       sodipodi:arg2="-0.78539814"
       inkscape:flatsided="false"
       inkscape:rounded="0"
       inkscape:randomized="0"
       d="m 420.09558,708.15657 12.1029,22.12927 22.12926,12.10289 -22.12926,12.1029 -12.1029,22.12926 -12.10289,-22.12926 -22.12927,-12.1029 22.12927,-12.10289 z"
       inkscape:transform-center-y="-8.5580394"
       transform="translate(-21.752505,-9.5167181)"
       inkscape:export-xdpi="199"
       inkscape:export-ydpi="199" />
    <path
       sodipodi:type="star"
       style="color:#000000;fill:#d40000;stroke:none;stroke-width:5;marker:none;visibility:visible;display:inline;overflow:visible;enable-background:accumulate"
       id="path2987-1"
       sodipodi:sides="3"
       sodipodi:cx="262.3898"
       sodipodi:cy="640.42377"
       sodipodi:r1="18.240046"
       sodipodi:r2="18.240046"
       sodipodi:arg1="2.6179939"
       sodipodi:arg2="3.6651915"
       inkscape:flatsided="true"
       inkscape:rounded="0"
       inkscape:randomized="0"
       d="m 246.59346,649.54379 15.79634,-27.36007 15.79634,27.36007 z"
       inkscape:transform-center-y="270.83868"
       transform="matrix(0.15808995,0,0,1.2310846,355.66022,36.052515)"
       inkscape:export-filename="C:\Users\Andre\path2989.png"
       inkscape:export-xdpi="199"
       inkscape:export-ydpi="199" />
    <path
       sodipodi:type="star"
       style="color:#000000;fill:#800080;stroke:none;stroke-width:5;marker:none;visibility:visible;display:inline;overflow:visible;enable-background:accumulate"
       id="path2987-9"
       sodipodi:sides="3"
       sodipodi:cx="262.3898"
       sodipodi:cy="640.42377"
       sodipodi:r1="18.240046"
       sodipodi:r2="9.1200228"
       sodipodi:arg1="2.6179939"
       sodipodi:arg2="3.6651914"
       inkscape:flatsided="true"
       inkscape:rounded="0"
       inkscape:randomized="0"
       d="m 246.59346,649.54379 15.79634,-27.36007 15.79634,27.36007 z"
       inkscape:transform-center-y="49.49973"
       transform="matrix(0.22499879,0,0,0.22499879,339.30569,790.54541)"
       inkscape:export-filename="C:\Users\Andre\path29892.png"
       inkscape:export-xdpi="199"
       inkscape:export-ydpi="199" />
  </g>
</svg>
